Transforming Data
…
Selecting Columns to Keep

raw_data |> 
  select(
    PID,
    Gender,
    Age
  )

# A tibble: 29 × 3
   PID   Gender   Age
   <chr> <chr>  <dbl>
 1 26    M         54
 2 27    M         54
 3 28    F         37
 4 29    M         51
 5 30    M         52
 6 A2    male      39
 7 A3    M         47
 8 C     M         53
 9 D     M         68
10 I     M         50
# … with 19 more rows

Selecting Columns to Keep

Often your data set has lots of columns you won’t use. We can choose which columns to keep by listing them by index.

raw_data |> 
  select(c(1, 5, 6))

# A tibble: 29 × 3
   PID   Gender   Age
   <chr> <chr>  <dbl>
 1 26    M         54
 2 27    M         54
 3 28    F         37
 4 29    M         51
 5 30    M         52
 6 A2    male      39
 7 A3    M         47
 8 C     M         53
 9 D     M         68
10 I     M         50
# … with 19 more rows

Selecting Columns to Remove

We can select columns to remove by using - before the names or index. We can list these as between a range, e.g. 6:47 or c(Age:follow_up), or as a specific vector of indices, e.g. c(1, 2, 3) or c(PID, start_time, end_time)

raw_data |> 
  select(-c(Age:follow_up))

# A tibble: 29 × 5
   PID   start_time          end_time            progress Gender
   <chr> <chr>               <chr>               <chr>    <chr> 
 1 26    2018-03-22 23:06:11 2018-03-23 00:25:51 FINISH   M     
 2 27    2018-03-26 00:30:20 2018-03-26 02:15:52 no       M     
 3 28    2018-03-21 11:09:38 2018-03-21 12:16:28 END      F     
 4 29    2018-03-25 13:03:58 2018-03-25 14:45:25 ethics   M     
 5 30    2018-03-24 06:46:30 2018-03-24 08:17:29 ethics   M     
 6 A2    2018-03-21 03:23:57 2018-03-21 04:28:01 END      male  
 7 A3    2018-03-25 21:07:24 2018-03-25 22:51:44 ethics   M     
 8 C     2018-03-24 18:03:12 2018-03-24 19:38:12 ethics   M     
 9 D     2018-03-22 04:16:08 2018-03-22 05:29:05 <NA>     M     
10 I     2018-03-23 02:48:32 2018-03-23 04:09:31 END      M     
# … with 19 more rows
…
matches(): Keeps columns matching a regular expression. This is useful for complex matching.

num_range(): Keeps columns with a matching prefix and a following range of numbers.

Select Helpers

contains()

Let’s try a few:

raw_data |> 
  select(contains("DJG"))

# A tibble: 29 × 6
   DJG_1 DJG_2 DJG_3 DJG_4 DJG_5 DJG_6
   <dbl> <dbl> <dbl> <dbl> <dbl> <dbl>
 1     1     1     1     0     0     0
 2     0     0     0     1     0     1
 3     0     1     0     0     1     1
 4     0     1     1     0     1     0
 5     1     1     0     0     1     1
 6     0     1     1     1     0     1
 7     0     1     1     1     1     1
 8     1     0     1     0     1     0
 9     0     0     1     1     0     1
10     1     1     1     1     0     1
# … with 19 more rows

Select Helpers

num_range()

Let’s try a few:

raw_data |> 
  select(num_range("DJG_", 1:3))

# A tibble: 29 × 3
   DJG_1 DJG_2 DJG_3
   <dbl> <dbl> <dbl>
 1     1     1     1
 2     0     0     0
 3     0     1     0
 4     0     1     1
 5     1     1     0
 6     0     1     1
 7     0     1     1
 8     1     0     1
 9     0     0     1
10     1     1     1
# … with 19 more rows

Reordering and Renaming Columns

select(), everything(), and rename()

You can use select() to reorder columns. Either specify the exact locations or specify the first few and use everything() to select all remaining columns.

raw_data |> 
  select(PID, Gender, Age, start_time, end_time, everything())

# A tibble: 29 × 47
   PID   Gender   Age start_time  end_t…¹ progr…² Region Marit…³ Livin…⁴ Prima…⁵
   <chr> <chr>  <dbl> <chr>       <chr>   <chr>   <chr>  <chr>   <chr>   <chr>  
 1 26    M         54 2018-03-22… 2018-0… FINISH  East   Married With w… None   
 2 27    M         54 2018-03-26… 2018-0… no      Scotl… Married With w… None   
 3 28    F         37 2018-03-21… 2018-0… END     South… Married With h… None   
 4 29    M         51 2018-03-25… 2018-0… ethics  West … Single  Alone   None   
 5 30    M         52 2018-03-24… 2018-0… ethics  Scotl… Married With w… Wife   
 6 A2    male      39 2018-03-21… 2018-0… END     North… Married Wife w… None   
 7 A3    M         47 2018-03-25… 2018-0… ethics  North… Married Wife w… Wife i…
 8 C     M         53 2018-03-24… 2018-0… ethics  Norfo… With P… Partner None   
 9 D     M         68 2018-03-22… 2018-0… <NA>    Scotl… Widower With B… Brother
10 I     M         50 2018-03-23… 2018-0… END     Scotl… In rel… Live w… None   
# … with 19 more rows, 37 more variables: Employment <chr>,
#   `Time Since BI` <chr>, `BI Severity` <chr>, Vision <chr>, Speech <chr>,
#   Motor <chr>, Memory <chr>, Cognitive <chr>, Pain <chr>, BRS1 <dbl>,
#   BRS2 <dbl>, BRS3 <dbl>, BRS4 <dbl>, BRS5 <dbl>, BRS6 <dbl>, DJG_1 <dbl>,
#   DJG_2 <dbl>, DJG_3 <dbl>, DJG_4 <dbl>, DJG_5 <dbl>, DJG_6 <dbl>,
#   `WEMWBS 1` <chr>, `WEMWBS 2` <chr>, `WEMWBS 3` <chr>, `WEMWBS 4` <chr>,
#   `WEMWBS 5` <chr>, `WEMWBS 6` <chr>, `WEMWBS 7` <chr>, `WEMWBS 8` <chr>, …
…
Renaming Columns

raw_data |> 
  rename(participant_id = PID)

# A tibble: 29 × 47
   partici…¹ start…² end_t…³ progr…⁴ Gender   Age Region Marit…⁵ Livin…⁶ Prima…⁷
   <chr>     <chr>   <chr>   <chr>   <chr>  <dbl> <chr>  <chr>   <chr>   <chr>  
 1 26        2018-0… 2018-0… FINISH  M         54 East   Married With w… None   
 2 27        2018-0… 2018-0… no      M         54 Scotl… Married With w… None   
 3 28        2018-0… 2018-0… END     F         37 South… Married With h… None   
 4 29        2018-0… 2018-0… ethics  M         51 West … Single  Alone   None   
 5 30        2018-0… 2018-0… ethics  M         52 Scotl… Married With w… Wife   
 6 A2        2018-0… 2018-0… END     male      39 North… Married Wife w… None   
 7 A3        2018-0… 2018-0… ethics  M         47 North… Married Wife w… Wife i…
 8 C         2018-0… 2018-0… ethics  M         53 Norfo… With P… Partner None   
 9 D         2018-0… 2018-0… <NA>    M         68 Scotl… Widower With B… Brother
10 I         2018-0… 2018-0… END     M         50 Scotl… In rel… Live w… None   
# … with 19 more rows, 37 more variables: Employment <chr>,
#   `Time Since BI` <chr>, `BI Severity` <chr>, Vision <chr>, Speech <chr>,
#   Motor <chr>, Memory <chr>, Cognitive <chr>, Pain <chr>, BRS1 <dbl>,
#   BRS2 <dbl>, BRS3 <dbl>, BRS4 <dbl>, BRS5 <dbl>, BRS6 <dbl>, DJG_1 <dbl>,
#   DJG_2 <dbl>, DJG_3 <dbl>, DJG_4 <dbl>, DJG_5 <dbl>, DJG_6 <dbl>,
#   `WEMWBS 1` <chr>, `WEMWBS 2` <chr>, `WEMWBS 3` <chr>, `WEMWBS 4` <chr>,
#   `WEMWBS 5` <chr>, `WEMWBS 6` <chr>, `WEMWBS 7` <chr>, `WEMWBS 8` <chr>, …

Renaming Columns Automatically

The janitor package has a function, clean_names(), which fixes irregularities in names. Mainly, it’s good practice to keep one format such as snake_case, to avoid spaces in names, and to avoid numbers at the start of column names.

raw_data |> 
  janitor::clean_names()

# A tibble: 29 × 47
   pid   start_time  end_t…¹ progr…² gender   age region marit…³ livin…⁴ prima…⁵
   <chr> <chr>       <chr>   <chr>   <chr>  <dbl> <chr>  <chr>   <chr>   <chr>  
 1 26    2018-03-22… 2018-0… FINISH  M         54 East   Married With w… None   
 2 27    2018-03-26… 2018-0… no      M         54 Scotl… Married With w… None   
 3 28    2018-03-21… 2018-0… END     F         37 South… Married With h… None   
 4 29    2018-03-25… 2018-0… ethics  M         51 West … Single  Alone   None   
 5 30    2018-03-24… 2018-0… ethics  M         52 Scotl… Married With w… Wife   
 6 A2    2018-03-21… 2018-0… END     male      39 North… Married Wife w… None   
 7 A3    2018-03-25… 2018-0… ethics  M         47 North… Married Wife w… Wife i…
 8 C     2018-03-24… 2018-0… ethics  M         53 Norfo… With P… Partner None   
 9 D     2018-03-22… 2018-0… <NA>    M         68 Scotl… Widower With B… Brother
10 I     2018-03-23… 2018-0… END     M         50 Scotl… In rel… Live w… None   
# … with 19 more rows, 37 more variables: employment <chr>,
#   time_since_bi <chr>, bi_severity <chr>, vision <chr>, speech <chr>,
#   motor <chr>, memory <chr>, cognitive <chr>, pain <chr>, brs1 <dbl>,
#   brs2 <dbl>, brs3 <dbl>, brs4 <dbl>, brs5 <dbl>, brs6 <dbl>, djg_1 <dbl>,
#   djg_2 <dbl>, djg_3 <dbl>, djg_4 <dbl>, djg_5 <dbl>, djg_6 <dbl>,
#   wemwbs_1 <chr>, wemwbs_2 <chr>, wemwbs_3 <chr>, wemwbs_4 <chr>,
#   wemwbs_5 <chr>, wemwbs_6 <chr>, wemwbs_7 <chr>, wemwbs_8 <chr>, …
…
Simple Operations

raw_data |> 
  mutate(
    birth_year = 2023 - Age
  ) |> 
  select(PID, birth_year)

# A tibble: 29 × 2
   PID   birth_year
   <chr>      <dbl>
 1 26          1969
 2 27          1969
 3 28          1986
 4 29          1972
 5 30          1971
 6 A2          1984
 7 A3          1976
 8 C           1970
 9 D           1955
10 I           1973
# … with 19 more rows

Multi-column Operations

raw_data |> 
  mutate(
    djg_total = DJG_1 + DJG_2 + DJG_3 + DJG_4 + DJG_5 + DJG_6
  )

# A tibble: 29 × 48
   PID   start_time  end_t…¹ progr…² Gender   Age Region Marit…³ Livin…⁴ Prima…⁵
   <chr> <chr>       <chr>   <chr>   <chr>  <dbl> <chr>  <chr>   <chr>   <chr>  
 1 26    2018-03-22… 2018-0… FINISH  M         54 East   Married With w… None   
 2 27    2018-03-26… 2018-0… no      M         54 Scotl… Married With w… None   
 3 28    2018-03-21… 2018-0… END     F         37 South… Married With h… None   
 4 29    2018-03-25… 2018-0… ethics  M         51 West … Single  Alone   None   
 5 30    2018-03-24… 2018-0… ethics  M         52 Scotl… Married With w… Wife   
 6 A2    2018-03-21… 2018-0… END     male      39 North… Married Wife w… None   
 7 A3    2018-03-25… 2018-0… ethics  M         47 North… Married Wife w… Wife i…
 8 C     2018-03-24… 2018-0… ethics  M         53 Norfo… With P… Partner None   
 9 D     2018-03-22… 2018-0… <NA>    M         68 Scotl… Widower With B… Brother
10 I     2018-03-23… 2018-0… END     M         50 Scotl… In rel… Live w… None   
# … with 19 more rows, 38 more variables: Employment <chr>,
#   `Time Since BI` <chr>, `BI Severity` <chr>, Vision <chr>, Speech <chr>,
#   Motor <chr>, Memory <chr>, Cognitive <chr>, Pain <chr>, BRS1 <dbl>,
#   BRS2 <dbl>, BRS3 <dbl>, BRS4 <dbl>, BRS5 <dbl>, BRS6 <dbl>, DJG_1 <dbl>,
#   DJG_2 <dbl>, DJG_3 <dbl>, DJG_4 <dbl>, DJG_5 <dbl>, DJG_6 <dbl>,
#   `WEMWBS 1` <chr>, `WEMWBS 2` <chr>, `WEMWBS 3` <chr>, `WEMWBS 4` <chr>,
#   `WEMWBS 5` <chr>, `WEMWBS 6` <chr>, `WEMWBS 7` <chr>, `WEMWBS 8` <chr>, …
…
To fix this, we change the data type.

Multi-Column Operations

Notice below we can work with columns we’re still in the process of creating during mutate() calls.

raw_data |> 
  mutate(
    start_time = ymd_hms(start_time),
    end_time = ymd_hms(end_time),
    total_time = end_time - start_time
  ) |> 
  select(contains("time"))

# A tibble: 29 × 4
   start_time          end_time            `Time Since BI` total_time    
   <dttm>              <dttm>              <chr>           <drtn>        
 1 2018-03-22 23:06:11 2018-03-23 00:25:51 6 (2015)        1.327778 hours
 2 2018-03-26 00:30:20 2018-03-26 02:15:52 3 (2018)        1.758889 hours
 3 2018-03-21 11:09:38 2018-03-21 12:16:28 5 (2016)        1.113889 hours
 4 2018-03-25 13:03:58 2018-03-25 14:45:25 23 (1998)       1.690833 hours
 5 2018-03-24 06:46:30 2018-03-24 08:17:29 8 (2013)        1.516389 hours
 6 2018-03-21 03:23:57 2018-03-21 04:28:01 3 (2017)        1.067778 hours
 7 2018-03-25 21:07:24 2018-03-25 22:51:44 1 (2020)        1.738889 hours
 8 2018-03-24 18:03:12 2018-03-24 19:38:12 29 (1992)       1.583333 hours
 9 2018-03-22 04:16:08 2018-03-22 05:29:05 6 (2016)        1.215833 hours
10 2018-03-23 02:48:32 2018-03-23 04:09:31 21 (2000)       1.349722 hours
# … with 19 more rows
…
Using Conditionals

raw_data |> 
  select(PID, Vision) |> 
  mutate(
    Vision = case_when(
      Vision == "X" ~ 1,
      TRUE ~ 0
    )
  )

# A tibble: 29 × 2
   PID   Vision
   <chr>  <dbl>
 1 26         0
 2 27         0
 3 28         1
 4 29         0
 5 30         1
 6 A2         0
 7 A3         0
 8 C          0
 9 D          1
10 I          0
# … with 19 more rows
…
Inverting NAs

If we want values that AREN’T NAs, then we combine is.na() and the NOT (!) operator.

raw_data |> filter(!is.na(progress))

# A tibble: 24 × 47
   PID   start_time  end_t…¹ progr…² Gender   Age Region Marit…³ Livin…⁴ Prima…⁵
   <chr> <chr>       <chr>   <chr>   <chr>  <dbl> <chr>  <chr>   <chr>   <chr>  
 1 26    2018-03-22… 2018-0… FINISH  M         54 East   Married With w… None   
 2 27    2018-03-26… 2018-0… no      M         54 Scotl… Married With w… None   
 3 28    2018-03-21… 2018-0… END     F         37 South… Married With h… None   
 4 29    2018-03-25… 2018-0… ethics  M         51 West … Single  Alone   None   
 5 30    2018-03-24… 2018-0… ethics  M         52 Scotl… Married With w… Wife   
 6 A2    2018-03-21… 2018-0… END     male      39 North… Married Wife w… None   
 7 A3    2018-03-25… 2018-0… ethics  M         47 North… Married Wife w… Wife i…
 8 C     2018-03-24… 2018-0… ethics  M         53 Norfo… With P… Partner None   
 9 I     2018-03-23… 2018-0… END     M         50 Scotl… In rel… Live w… None   
10 J     2018-03-25… 2018-0… END     M         46 Scotl… Single  By self None   
# … with 14 more rows, 37 more variables: Employment <chr>,
#   `Time Since BI` <chr>, `BI Severity` <chr>, Vision <chr>, Speech <chr>,
#   Motor <chr>, Memory <chr>, Cognitive <chr>, Pain <chr>, BRS1 <dbl>,
#   BRS2 <dbl>, BRS3 <dbl>, BRS4 <dbl>, BRS5 <dbl>, BRS6 <dbl>, DJG_1 <dbl>,
#   DJG_2 <dbl>, DJG_3 <dbl>, DJG_4 <dbl>, DJG_5 <dbl>, DJG_6 <dbl>,
#   `WEMWBS 1` <chr>, `WEMWBS 2` <chr>, `WEMWBS 3` <chr>, `WEMWBS 4` <chr>,
#   `WEMWBS 5` <chr>, `WEMWBS 6` <chr>, `WEMWBS 7` <chr>, `WEMWBS 8` <chr>, …
…
Arranging Data

This also works with desc() so you can sort by descending order.

raw_data |> 
  select(Age) |> 
  arrange(Age)

# A tibble: 29 × 1
     Age
   <dbl>
 1    24
 2    28
 3    33
 4    37
 5    39
 6    39
 7    46
 8    47
 9    47
10    49
# … with 19 more rows

raw_data |> 
  select(Age) |> 
  arrange(desc(Age))

# A tibble: 29 × 1
     Age
   <dbl>
 1    68
 2    68
 3    64
 4    61
 5    56
 6    55
 7    54
 8    54
 9    53
10    53
# … with 19 more rows
…
