Getting Started
…
Data Frames

Let’s make a tibble from the objects we defined earlier.

Notice that by default tibbles limit the number of values printed to the console.

iq_data <- tibble(
  participant = participant_id[1:100],
  pet = pet_owned,
  iq = iq_score
)
iq_data

# A tibble: 100 × 3
   participant pet      iq
         <dbl> <chr> <dbl>
 1           1 dog   120. 
 2           2 cat   100. 
 3           3 dog   106. 
 4           4 cat   100. 
 5           5 dog    99.4
 6           6 cat   106. 
 7           7 cat    69.3
 8           8 dog    88.3
 9           9 cat   101. 
10          10 dog   108. 
# … with 90 more rows
…
operating_system <- sample(
  c("windows", "mac", "linux"), 
  size = 100, 
  replace = TRUE,
  prob = c(0.5, 0.3, 0.2)
)

Use the usual assignment to add this to the tibble.

iq_data$operating_system <- 
  operating_system
iq_data

# A tibble: 100 × 4
   participant pet      iq operating_system
         <dbl> <chr> <dbl> <chr>           
 1           1 dog   120.  linux           
 2           2 cat   100.  mac             
 3           3 dog   106.  mac             
 4           4 cat   100.  windows         
 5           5 dog    99.4 windows         
 6           6 cat   106.  windows         
 7           7 cat    69.3 mac             
 8           8 dog    88.3 mac             
 9           9 cat   101.  mac             
10          10 dog   108.  linux           
# … with 90 more rows

Adding and Removing Columns

Define the column as being NULL, or non-existent, to remove it.

iq_data$operating_system <- NULL # remove the column
iq_data

# A tibble: 100 × 3
   participant pet      iq
         <dbl> <chr> <dbl>
 1           1 dog   120. 
 2           2 cat   100. 
 3           3 dog   106. 
 4           4 cat   100. 
 5           5 dog    99.4
 6           6 cat   106. 
 7           7 cat    69.3
 8           8 dog    88.3
 9           9 cat   101. 
10          10 dog   108. 
# … with 90 more rows
…
Adding or Removing Rows

Since tibbles must be square (i.e. have similar length vectors in each column), if you want to add a row of data to a tibble you must specify values for each column. If no value is present, just give it an NA.

To add a row to our tibble, we need to know where to place it. Let’s put some data in the 101st row of our iq_data

iq_data[101, ] <- list(
  participant = 101, 
  pet = "dog",
  iq = NA
)
iq_data

# A tibble: 101 × 3
   participant pet      iq
         <dbl> <chr> <dbl>
 1           1 dog   120. 
 2           2 cat   100. 
 3           3 dog   106. 
 4           4 cat   100. 
 5           5 dog    99.4
 6           6 cat   106. 
 7           7 cat    69.3
 8           8 dog    88.3
 9           9 cat   101. 
10          10 dog   108. 
# … with 91 more rows

Adding or Removing Rows

If we just have the one value we want to put in a single column, we can do so and R will fill in the remaining columns with NA.

iq_data[102, "participant"] <- 102

iq_data

# A tibble: 102 × 3
   participant pet      iq
         <dbl> <chr> <dbl>
 1           1 dog   120. 
 2           2 cat   100. 
 3           3 dog   106. 
 4           4 cat   100. 
 5           5 dog    99.4
 6           6 cat   106. 
 7           7 cat    69.3
 8           8 dog    88.3
 9           9 cat   101. 
10          10 dog   108. 
# … with 92 more rows
…
