Data Simulation and Power
…
Using purrr::pmap() executes your function, passing any parameters from the first argument to the function. It runs for however many rows you have in the parameters.

Functional Iteration with the purr::map() Family of Functions.

Here, we have a 1000 run tibble each with n = 100, so we will simulate 1000 data sets with n = 100 and fit a model to each data set.

parameters <- tibble(
  n = rep(100, 1000)
)

simulations <- purrr::pmap_df(parameters, sim_fit)
simulations

# A tibble: 1,000 × 8
   estimate statistic  p.value parameter conf.low conf.high method   alternative
      <dbl>     <dbl>    <dbl>     <dbl>    <dbl>     <dbl> <chr>    <chr>      
 1     201.      2.60 0.0108          99     193.      209. One Sam… two.sided  
 2     199.      2.20 0.0305          99     191.      208. One Sam… two.sided  
 3     196.      1.53 0.130           99     188.      204. One Sam… two.sided  
 4     203.      3.23 0.00170         99     195.      211. One Sam… two.sided  
 5     203.      3.13 0.00230         99     195.      212. One Sam… two.sided  
 6     199.      2.11 0.0372          99     191.      208. One Sam… two.sided  
 7     203.      3.38 0.00103         99     195.      210. One Sam… two.sided  
 8     205.      3.63 0.000457        99     197.      213. One Sam… two.sided  
 9     194.      1.07 0.286           99     186.      202. One Sam… two.sided  
10     200.      2.31 0.0232          99     191.      208. One Sam… two.sided  
# ℹ 990 more rows
…
Update the parameters to now vary the mean effect size. Remember we have a default n of 100.

parameters <- tibble(
  mean = rep(seq(160, 220, length.out = 20), 1000)
)

Simulate for Sensitivity

simulations <- purrr::pmap_df(parameters, sim_fit)
simulations

# A tibble: 20,000 × 9
   estimate statistic  p.value parameter conf.low conf.high method   alternative
      <dbl>     <dbl>    <dbl>     <dbl>    <dbl>     <dbl> <chr>    <chr>      
 1     163.    -6.66  1.56e- 9        99     155.      171. One Sam… two.sided  
 2     164.    -7.41  4.38e-11        99     157.      171. One Sam… two.sided  
 3     164.    -6.63  1.82e- 9        99     156.      172. One Sam… two.sided  
 4     166.    -6.07  2.38e- 8        99     158.      174. One Sam… two.sided  
 5     172.    -4.67  9.54e- 6        99     164.      180. One Sam… two.sided  
 6     176.    -3.46  8.01e- 4        99     167.      184. One Sam… two.sided  
 7     179.    -2.62  1.02e- 2        99     171.      187. One Sam… two.sided  
 8     176.    -3.50  6.94e- 4        99     169.      184. One Sam… two.sided  
 9     185.    -1.16  2.50e- 1        99     177.      194. One Sam… two.sided  
10     192.     0.506 6.14e- 1        99     184.      200. One Sam… two.sided  
# ℹ 19,990 more rows
# ℹ 1 more variable: mean <dbl>
…
